{"id": "282853", "student": {"name": "MATEUSZ", "surname": "BUŁACH", "gender": "M"}, "title": "Przewodniczacy Zarzadu", "e_mail": "mateuszbułach@gmail.com", "phone_number": "562860497", "year_of_study": "4", "field_of_study": "Electronics", "abilities": [{"ability": "ElasticSearch", "score": 5}, {"ability": "SQL", "score": 1}, {"ability": "React", "score": 5}, {"ability": "Server Maintenance", "score": 5}, {"ability": "CSS", "score": 2}], "time": "23/01/2020, 00:21"}
{"id": "187435", "student": {"name": "PATRYK", "surname": "BITSADZE", "gender": "M"}, "title": "Czlonek Zarzadu", "e_mail": "patrykbitsadze@gmail.com", "phone_number": "857495040", "year_of_study": "5", "field_of_study": "IT", "abilities": [{"ability": "Statistics", "score": 6}, {"ability": "JavaScript", "score": 5}, {"ability": "HTML5", "score": 6}, {"ability": "Pandas", "score": 3}, {"ability": "LogStash", "score": 2}, {"ability": "Java", "score": 1}, {"ability": "Matlab", "score": 3}, {"ability": "OpenCV", "score": 3}, {"ability": "AngularJS", "score": 3}, {"ability": "Jenkins", "score": 6}], "time": "23/01/2020, 00:21"}
{"id": "192735", "student": {"name": "ANASTAZJA", "surname": "PIENCZYN", "gender": "F"}, "title": "Czlonek Zarzadu", "e_mail": "anastazjapienczyn@gmail.com", "phone_number": "567843324", "year_of_study": "5", "field_of_study": "IT", "abilities": [{"ability": "Visual Basic", "score": 5}, {"ability": "PostgreSQL", "score": 5}, {"ability": "Machine Learning", "score": 6}, {"ability": "NumPy", "score": 4}, {"ability": "Python", "score": 2}, {"ability": "LogStash", "score": 1}], "time": "23/01/2020, 00:21"}
{"id": "469089", "student": {"name": "ALEKS", "surname": "JAWOREŃSKI", "gender": "M"}, "title": "Czlonek Zarzadu", "e_mail": "aleksjaworeński@gmail.com", "phone_number": "698156778", "year_of_study": "2", "field_of_study": "EiT", "abilities": [{"ability": "GIT", "score": 6}], "time": "23/01/2020, 00:21"}
{"id": "302211", "student": {"name": "IGA", "surname": "BRESSO", "gender": "F"}, "title": "Czlonek Zarzadu", "e_mail": "igabresso@gmail.com", "phone_number": "602008818", "year_of_study": "3", "field_of_study": "IT", "abilities": [{"ability": "DSP", "score": 3}, {"ability": "Pandas", "score": 2}, {"ability": "Statistics", "score": 2}, {"ability": "GIT", "score": 4}, {"ability": "Computer Networks", "score": 5}, {"ability": "CSS", "score": 1}], "time": "23/01/2020, 00:21"}
{"id": "560119", "student": {"name": "LESZEK", "surname": "JAŁOWIŃSKI", "gender": "M"}, "title": "Czlonek", "e_mail": "leszekjałowiński@gmail.com", "phone_number": "890041257", "year_of_study": "1", "field_of_study": "Other", "abilities": [{"ability": "UX", "score": 2}, {"ability": "HTML5", "score": 3}, {"ability": "Python", "score": 1}, {"ability": "AngularJS", "score": 2}, {"ability": "Pandas", "score": 6}], "time": "23/01/2020, 00:21"}
{"id": "280977", "student": {"name": "SEWERYN", "surname": "SZUROBURA", "gender": "M"}, "title": "Czlonek", "e_mail": "sewerynszurobura@gmail.com", "phone_number": "652377518", "year_of_study": "4", "field_of_study": "ICT", "abilities": [{"ability": "C#", "score": 6}, {"ability": "NumPy", "score": 6}, {"ability": "Server Maintenance", "score": 1}, {"ability": "ElasticSearch", "score": 1}, {"ability": "GIT", "score": 2}, {"ability": "Visual Basic", "score": 4}, {"ability": "Python", "score": 3}, {"ability": "Computer Networks", "score": 3}, {"ability": "Matlab", "score": 5}, {"ability": "DSP", "score": 5}], "time": "23/01/2020, 00:21"}
{"id": "130465", "student": {"name": "DORIAN", "surname": "DORENGOWSKI", "gender": "M"}, "title": "Czlonek", "e_mail": "doriandorengowski@gmail.com", "phone_number": "607382058", "year_of_study": "5", "field_of_study": "IT", "abilities": [{"ability": "JavaScript", "score": 2}, {"ability": "Computer Networks", "score": 2}, {"ability": "NumPy", "score": 2}], "time": "23/01/2020, 00:21"}
{"id": "130017", "student": {"name": "OLIWER", "surname": "HARAVY", "gender": "M"}, "title": "Czlonek", "e_mail": "oliwerharavy@gmail.com", "phone_number": "699617053", "year_of_study": "5", "field_of_study": "Electronics", "abilities": [{"ability": "PostgreSQL", "score": 5}, {"ability": "JavaScript", "score": 4}, {"ability": "C#", "score": 4}], "time": "23/01/2020, 00:21"}
{"id": "481080", "student": {"name": "MILAN", "surname": "JEDNOROWSKI", "gender": "M"}, "title": "Czlonek", "e_mail": "milanjednorowski@gmail.com", "phone_number": "556350341", "year_of_study": "2", "field_of_study": "IT", "abilities": [{"ability": "Python", "score": 5}, {"ability": "Matlab", "score": 5}, {"ability": "JavaScript", "score": 5}, {"ability": "Julia", "score": 6}, {"ability": "Jenkins", "score": 5}, {"ability": "Visual Basic", "score": 6}, {"ability": "PostgreSQL", "score": 6}, {"ability": "Computer Networks", "score": 4}, {"ability": "Java", "score": 2}, {"ability": "ElasticSearch", "score": 3}], "time": "23/01/2020, 00:21"}
{"id": "556836", "student": {"name": "FRYDERYK", "surname": "MISKIMMIN", "gender": "M"}, "title": "Czlonek", "e_mail": "fryderykmiskimmin@gmail.com", "phone_number": "731450198", "year_of_study": "1", "field_of_study": "IT", "abilities": [{"ability": "Computer Networks", "score": 2}, {"ability": "Visual Basic", "score": 3}, {"ability": "LogStash", "score": 5}, {"ability": "Jenkins", "score": 6}, {"ability": "C#", "score": 5}, {"ability": "Kibana", "score": 5}, {"ability": "GUI Programming", "score": 1}], "time": "23/01/2020, 00:21"}
{"id": "286987", "student": {"name": "KASJAN", "surname": "COOGAN", "gender": "M"}, "title": "Czlonek", "e_mail": "kasjancoogan@gmail.com", "phone_number": "777575260", "year_of_study": "4", "field_of_study": "EiT", "abilities": [{"ability": "JavaScript", "score": 1}, {"ability": "SQL", "score": 2}, {"ability": "Machine Learning", "score": 3}, {"ability": "PostgreSQL", "score": 3}, {"ability": "C#", "score": 3}, {"ability": "NumPy", "score": 5}, {"ability": "Visual Basic", "score": 4}], "time": "23/01/2020, 00:21"}
{"id": "433487", "student": {"name": "JANUSZ", "surname": "FEDORYSZAK", "gender": "M"}, "title": "Czlonek", "e_mail": "januszfedoryszak@gmail.com", "phone_number": "562272851", "year_of_study": "2", "field_of_study": "ICT", "abilities": [{"ability": "OpenCV", "score": 6}], "time": "23/01/2020, 00:21"}
{"id": "182128", "student": {"name": "NATHANIEL", "surname": "LUCHYSHYN", "gender": "M"}, "title": "Czlonek", "e_mail": "nathanielluchyshyn@gmail.com", "phone_number": "884778331", "year_of_study": "5", "field_of_study": "Other", "abilities": [{"ability": "LogStash", "score": 2}, {"ability": "SQL", "score": 6}, {"ability": "JavaScript", "score": 5}, {"ability": "Java", "score": 5}, {"ability": "C++", "score": 3}, {"ability": "Visualization", "score": 2}, {"ability": "Matlab", "score": 4}, {"ability": "Pandas", "score": 1}, {"ability": "Julia", "score": 2}], "time": "23/01/2020, 00:21"}
{"id": "595673", "student": {"name": "KUBA", "surname": "KULINIAK", "gender": "M"}, "title": "Czlonek", "e_mail": "kubakuliniak@gmail.com", "phone_number": "628729188", "year_of_study": "1", "field_of_study": "IT", "abilities": [{"ability": "JavaScript", "score": 4}, {"ability": "Kibana", "score": 6}], "time": "23/01/2020, 00:21"}
{"id": "259447", "student": {"name": "FELIKS", "surname": "SCHLACK", "gender": "M"}, "title": "Czlonek", "e_mail": "feliksschlack@gmail.com", "phone_number": "538645399", "year_of_study": "4", "field_of_study": "Other", "abilities": [{"ability": "Pandas", "score": 4}, {"ability": "Matlab", "score": 1}, {"ability": "GIT", "score": 6}, {"ability": "Visualization", "score": 5}, {"ability": "JavaScript", "score": 4}, {"ability": "UX", "score": 2}, {"ability": "Visual Basic", "score": 6}], "time": "23/01/2020, 00:21"}
{"id": "102058", "student": {"name": "SEBASTIAN", "surname": "PYRYT", "gender": "M"}, "title": "Czlonek", "e_mail": "sebastianpyryt@gmail.com", "phone_number": "874280226", "year_of_study": "5", "field_of_study": "Other", "abilities": [{"ability": "SQL", "score": 3}, {"ability": "Python", "score": 2}, {"ability": "Machine Learning", "score": 3}], "time": "23/01/2020, 00:21"}
{"id": "296972", "student": {"name": "DANUTA", "surname": "VARONINA", "gender": "F"}, "title": "Czlonek", "e_mail": "danutavaronina@gmail.com", "phone_number": "509185689", "year_of_study": "4", "field_of_study": "ICT", "abilities": [{"ability": "Computer Networks", "score": 2}, {"ability": "Python", "score": 6}], "time": "23/01/2020, 00:21"}
{"id": "566610", "student": {"name": "KLAUDIA", "surname": "TARRY", "gender": "F"}, "title": "Czlonek", "e_mail": "klaudiatarry@gmail.com", "phone_number": "532085231", "year_of_study": "1", "field_of_study": "Other", "abilities": [{"ability": "Computer Networks", "score": 3}], "time": "23/01/2020, 00:21"}
{"id": "374439", "student": {"name": "MELANIA", "surname": "ŻELASZCZYK", "gender": "F"}, "title": "Czlonek", "e_mail": "melaniażelaszczyk@gmail.com", "phone_number": "724839425", "year_of_study": "3", "field_of_study": "Electronics", "abilities": [{"ability": "Visual Basic", "score": 2}, {"ability": "Kibana", "score": 1}, {"ability": "Pandas", "score": 4}, {"ability": "Computer Networks", "score": 2}, {"ability": "Jenkins", "score": 3}, {"ability": "CSS", "score": 1}, {"ability": "SQL", "score": 1}], "time": "23/01/2020, 00:21"}
{"id": "462147", "student": {"name": "STELLA", "surname": "PATERMAN", "gender": "F"}, "title": "Czlonek", "e_mail": "stellapaterman@gmail.com", "phone_number": "888746531", "year_of_study": "2", "field_of_study": "Other", "abilities": [{"ability": "GUI Programming", "score": 4}], "time": "23/01/2020, 00:21"}
{"id": "510588", "student": {"name": "CECYLIA", "surname": "GRZEŚ", "gender": "F"}, "title": "Czlonek", "e_mail": "cecyliagrześ@gmail.com", "phone_number": "680125126", "year_of_study": "1", "field_of_study": "Other", "abilities": [{"ability": "Statistics", "score": 2}, {"ability": "Server Maintenance", "score": 5}], "time": "23/01/2020, 00:21"}
{"id": "466114", "student": {"name": "GRETA", "surname": "NEUBRECH", "gender": "F"}, "title": "Czlonek", "e_mail": "gretaneubrech@gmail.com", "phone_number": "606589973", "year_of_study": "2", "field_of_study": "EiT", "abilities": [{"ability": "GUI Programming", "score": 5}, {"ability": "C++", "score": 2}, {"ability": "Visual Basic", "score": 4}, {"ability": "Matlab", "score": 2}, {"ability": "Machine Learning", "score": 6}, {"ability": "Statistics", "score": 3}, {"ability": "CSS", "score": 6}], "time": "23/01/2020, 00:21"}
{"id": "522707", "student": {"name": "MATEUSZ", "surname": "THAKER", "gender": "M"}, "title": "Obserwator", "e_mail": "mateuszthaker@gmail.com", "phone_number": "715223434", "year_of_study": "1", "field_of_study": "Electronics", "abilities": [{"ability": "Matlab", "score": 3}, {"ability": "Machine Learning", "score": 5}, {"ability": "AngularJS", "score": 4}, {"ability": "Julia", "score": 6}], "time": "23/01/2020, 00:21"}
{"id": "128755", "student": {"name": "NICOLAS", "surname": "BRUNA", "gender": "M"}, "title": "Obserwator", "e_mail": "nicolasbruna@gmail.com", "phone_number": "840154560", "year_of_study": "5", "field_of_study": "ICT", "abilities": [{"ability": "Visual Basic", "score": 1}, {"ability": "CSS", "score": 4}, {"ability": "Computer Networks", "score": 1}, {"ability": "OpenCV", "score": 3}], "time": "23/01/2020, 00:21"}
{"id": "205752", "student": {"name": "ELENA", "surname": "BARSZEWICZ", "gender": "F"}, "title": "Obserwator", "e_mail": "elenabarszewicz@gmail.com", "phone_number": "757551676", "year_of_study": "4", "field_of_study": "Electronics", "abilities": [{"ability": "Visualization", "score": 2}, {"ability": "JavaScript", "score": 5}, {"ability": "React", "score": 5}, {"ability": "Statistics", "score": 1}, {"ability": "Matlab", "score": 5}, {"ability": "AI", "score": 1}], "time": "23/01/2020, 00:21"}
{"id": "558951", "student": {"name": "MARCELINA", "surname": "KAZYMIRKO", "gender": "F"}, "title": "Obserwator", "e_mail": "marcelinakazymirko@gmail.com", "phone_number": "643843676", "year_of_study": "1", "field_of_study": "EiT", "abilities": [{"ability": "UX", "score": 1}, {"ability": "Java", "score": 6}, {"ability": "Visual Basic", "score": 1}, {"ability": "Computer Networks", "score": 6}, {"ability": "Server Maintenance", "score": 5}, {"ability": "Machine Learning", "score": 5}, {"ability": "Visualization", "score": 2}], "time": "23/01/2020, 00:21"}
{"id": "223770", "student": {"name": "KRYSTIAN", "surname": "HILFERT", "gender": "M"}, "title": "Obserwator", "e_mail": "krystianhilfert@gmail.com", "phone_number": "750648737", "year_of_study": "4", "field_of_study": "ICT", "abilities": [{"ability": "DSP", "score": 1}, {"ability": "ElasticSearch", "score": 1}, {"ability": "Pandas", "score": 4}, {"ability": "Kibana", "score": 1}, {"ability": "React", "score": 1}, {"ability": "CSS", "score": 5}, {"ability": "GIT", "score": 5}, {"ability": "AngularJS", "score": 3}, {"ability": "Julia", "score": 3}], "time": "23/01/2020, 00:21"}
{"id": "543604", "student": {"name": "JAN", "surname": "CAPILI", "gender": "M"}, "title": "Obserwator", "e_mail": "jancapili@gmail.com", "phone_number": "811854856", "year_of_study": "1", "field_of_study": "IT", "abilities": [{"ability": "Computer Networks", "score": 2}, {"ability": "AI", "score": 4}, {"ability": "OpenCV", "score": 6}, {"ability": "DSP", "score": 3}, {"ability": "Visual Basic", "score": 2}, {"ability": "C++", "score": 4}, {"ability": "Visualization", "score": 4}, {"ability": "AngularJS", "score": 4}, {"ability": "Statistics", "score": 4}, {"ability": "Java", "score": 6}], "time": "23/01/2020, 00:21"}
{"id": "136949", "student": {"name": "CEZARY", "surname": "HRDINKO", "gender": "M"}, "title": "Obserwator", "e_mail": "cezaryhrdinko@gmail.com", "phone_number": "515565463", "year_of_study": "5", "field_of_study": "Other", "abilities": [{"ability": "Kibana", "score": 4}, {"ability": "Visual Basic", "score": 2}, {"ability": "C++", "score": 5}, {"ability": "GIT", "score": 5}, {"ability": "Visualization", "score": 4}, {"ability": "OpenCV", "score": 5}, {"ability": "Server Maintenance", "score": 2}, {"ability": "Matlab", "score": 6}, {"ability": "ElasticSearch", "score": 3}, {"ability": "AI", "score": 5}], "time": "23/01/2020, 00:21"}
